Spotify Song Data Analysis
…
Best Albums and Artists across all genres

Dance Monkey was the most popular album.

new_df %>% 
  group_by(playlist_genre, track_album_name, track_artist) %>% 
  summarise(max_pop = max(track_popularity)) %>% 
  mutate(rank_pop = dense_rank(desc(max_pop))) %>% 
  filter(rank_pop == 1) %>% 
  select(playlist_genre, track_album_name,track_artist, max_pop) %>% 
  arrange(desc(max_pop))

## # A tibble: 23,027 x 4
## # Groups:   playlist_genre, track_album_name [22,952]
##    playlist_genre track_album_name                         track_artist  max_pop
##    <chr>          <chr>                                    <chr>           <dbl>
##  1 latin          Dance Monkey (Stripped Back) / Dance Mo~ Tones and I       100
##  2 pop            Dance Monkey (Stripped Back) / Dance Mo~ Tones and I       100
##  3 edm            ROXANNE                                  Arizona Zerv~      99
##  4 latin          ROXANNE                                  Arizona Zerv~      99
##  5 r&b            ROXANNE                                  Arizona Zerv~      99
##  6 edm            Blinding Lights                          The Weeknd         98
##  7 edm            Hollywood's Bleeding                     Post Malone        98
##  8 edm            Memories                                 Maroon 5           98
##  9 edm            Please Excuse Me For Being Antisocial    Roddy Ricch        98
## 10 edm            Tusa                                     KAROL G            98
## # ... with 23,017 more rows
…
